…
The Data
--------

The datasets used for this post come from the [billboard](https://cran.r-project.org/package=billboard) package, which contains data of Billboard Hot 100 songs from 1960 to 2016.

Specifically, we are going to use 2 datasets from the package. First, we'll be working with the `wiki_hot_100s` dataset:

``` r
library(billboard)
hot100_tbl <- wiki_hot_100s %>% as_tibble()  # just transforms the dataset in a more suitable format for display.
hot100_tbl$year <- as.integer(hot100_tbl$year)
hot100_tbl
```

    ## # A tibble: 5,701 x 4
    ##       no                     title              artist  year
    ##    <chr>                     <chr>               <chr> <int>
    ##  1     1 Theme from A Summer Place         Percy Faith  1960
    ##  2     2          He'll Have to Go          Jim Reeves  1960
    ##  3     3             Cathy's Clown The Everly Brothers  1960
    ##  4     4              Running Bear      Johnny Preston  1960
    ##  5     5                Teen Angel        Mark Dinning  1960
    ##  6     6                 I'm Sorry          Brenda Lee  1960
    ##  7     7         It's Now or Never       Elvis Presley  1960
    ##  8     8                 Handy Man         Jimmy Jones  1960
    ##  9     9              Stuck on You       Elvis Presley  1960
    ## 10    10                 The Twist      Chubby Checker  1960
    ## # ... with 5,691 more rows

It is a data set containing 57 years of Billboard Hot 100 songs. It gives, for every year (1960-2016), the titles, artists and ranking.

Then, we'll move to a more interesting related dataset, `spotify_track_data`. This dataset contains the features of most of the tracks shown above (hot100\_tbl), obtained using the Spotify API:

``` r
data(spotify_track_data)  # This dataset is already in **tibble** format
spotify_track_data
```

    ## # A tibble: 5,497 x 23
    ##     year                 artist_name              artist_id explicit
    ##    <chr>                       <chr>                  <chr>    <lgl>
    ##  1  1960 Percy Faith & His Orchestra 24DQLSng7bKZD4GXLIaQbv    FALSE
    ##  2  1960                  Jim Reeves 2Ev0e8GUIX4u7d9etNLTXg    FALSE
    ##  3  1960              Johnny Preston 1B8n8vtEeexQ5NKehHTkeo    FALSE
    ##  4  1960                Mark Dinning 55Rf9Kfqd30nmqaeEDMpic    FALSE
    ##  5  1960                  Brenda Lee 4cPHsZM98sKzmV26wlwD2W    FALSE
    ##  6  1960               Elvis Presley 43ZHCT0cAZBISjO8DG9PnE    FALSE
    ##  7  1960                 Jimmy Jones 7ydcRbgt0yM9etADb1Ackp    FALSE
    ##  8  1960               Elvis Presley 43ZHCT0cAZBISjO8DG9PnE    FALSE
    ##  9  1960              Chubby Checker 7qQJQ3YtcGlqaLg5tcypN2    FALSE
    ## 10  1960              Connie Francis 3EY5DxGdy7x4GelivOjS2Q    FALSE
    ## # ... with 5,487 more rows, and 19 more variables: track_name <chr>,
    ## #   track_id <chr>, danceability <dbl>, energy <dbl>, key <int>,
    ## #   loudness <dbl>, mode <int>, speechiness <dbl>, acousticness <dbl>,
    ## #   instrumentalness <dbl>, liveness <dbl>, valence <dbl>, tempo <dbl>,
    ## #   type <chr>, uri <chr>, track_href <chr>, analysis_url <chr>,
    ## #   duration_ms <int>, time_signature <int>
…
Now we are ready to start exploring our data. I am going make a series of questions to answer with R code.

##### 1. Who got into the Billboard Hot 100 the most?

One very handy `dplyr` function is `count()`. You just give it a data.frame and one or more variables of interest, and it will count the number of observations for every group within the variables supplied.

Let's use `count()` right now:

``` r
hot100_tbl %>%
  count(artist, sort = TRUE)  # I added 'sort = TRUE' so it is sorted in descending order
```

    ## # A tibble: 2,768 x 2
    ##             artist     n
    ##              <chr> <int>
    ##  1         Madonna    35
    ##  2      Elton John    26
    ##  3     The Beatles    26
    ##  4   Janet Jackson    24
    ##  5    Mariah Carey    24
    ##  6 Michael Jackson    22
    ##  7   Stevie Wonder    22
    ##  8         Rihanna    20
    ##  9    Taylor Swift    20
    ## 10 Whitney Houston    19
    ## # ... with 2,758 more rows

Clearly, Madonna is the artist who got into the Billboards Hot 100 the most.

Of course, if your data is already "grouped" by the variable of interest (using the `group_by` function I mentioned in the introduction) you can avoid giving `count()` that variable of interest:

``` r
hot100_tbl %>%
  group_by(artist) %>%  # As I mentioned in the introduction, this returns the same data.frame but internally organized in groups
  count(sort = TRUE)  # And now we don't give any variable to count(), because it will use the grouping variable
```

    ## # A tibble: 2,768 x 2
    ## # Groups:   artist [2,768]
    ##             artist     n
    ##              <chr> <int>
    ##  1         Madonna    35
    ##  2      Elton John    26
    ##  3     The Beatles    26
    ##  4   Janet Jackson    24
    ##  5    Mariah Carey    24
    ##  6 Michael Jackson    22
    ##  7   Stevie Wonder    22
    ##  8         Rihanna    20
    ##  9    Taylor Swift    20
    ## 10 Whitney Houston    19
    ## # ... with 2,758 more rows

##### 2. Now, How many artists got into the Billboards **n** times? Where **n** can go from 1:35

Building on the code used in the previous question:

``` r
hot100_tbl %>%
  count(artist) %>%
  count(n, sort = TRUE)  # The variable with the counts will be named "nn"
```

    ## # A tibble: 24 x 2
    ##        n    nn
    ##    <int> <int>
    ##  1     1  1818
    ##  2     2   418
    ##  3     3   176
    ##  4     4    89
    ##  5     5    75
    ##  6     6    58
    ##  7     7    31
    ##  8     8    24
    ##  9     9    15
    ## 10    11    15
    ## # ... with 14 more rows
1818 out of 2768 artists got into the Billboards just 1 time (more than 50% of artists). That means that we have 1818 one-hit wonders (technically, for the one-hit wonders it is usually considered the top 40 only). Beware we've not checked artists that have worked together (say, duos).

And of course, only one artist got into the Billboards 35 times, Madonna (check `tail()` of the last table and see).

##### 3. We could also be interested in which songs got into the Billboards Hot 100 (year-end) more than once.

Let's check that out:

``` r
hot100_tbl %>%
  count(title, sort = TRUE) %>%
  filter(n > 1)  # We keep just those titles that appear more than once
```

    ## # A tibble: 494 x 2
    ##             title     n
    ##             <chr> <int>
    ##  1          Angel     6
    ##  2 Because of You     5
    ##  3        Forever     5
    ##  4         Heaven     5
    ##  5        My Love     5
    ##  6    Without You     5
    ##  7         Always     4
    ##  8          Crazy     4
    ##  9           Hero     4
    ## 10      I Like It     4
    ## # ... with 484 more rows

After `count()` we used `filter()` to filter out those titles that appear more than once. This`dplyr` function just takes a data.frame and a condition and it returns the rows where the condition is true.

Apparently, many titles appeared more than once (494). Let's dig into it using a very useful dplyr function that is the motivation of this post: `group_by` (again, to stick it in your memory, this function organizes the data in groups so we can make different computations in a group-wise basis).

Let's check the range of years in which the songs appeared:

``` r
hot100_tbl %>%
  group_by(title) %>%  # grouping the dataset. The same as: group_by(hot100_tbl, title)
  summarise(n = n(), min_year = min(year), max_year = max(year)) %>%  # the n() function just counts the number of observations for each group (the same we did before with count()
  arrange(desc(n))
```

    ## # A tibble: 5,109 x 4
    ##             title     n min_year max_year
    ##             <chr> <int>    <dbl>    <dbl>
    ##  1          Angel     6     1985     2003
    ##  2 Because of You     5     1998     2007
    ##  3        Forever     5     1960     2010
    ##  4         Heaven     5     1985     2004
    ##  5        My Love     5     1966     2007
    ##  6    Without You     5     1961     2012
    ##  7         Always     4     1987     1995
    ##  8          Crazy     4     1991     2006
    ##  9           Hero     4     1994     2002
    ## 10      I Like It     4     1989     2010
    ## # ... with 5,099 more rows

In the first 10 rows we can see that the titles that appear more than once (see `n`) come from a wide range of years

The `summarise()` function, when used in conjunction with a grouped data.frame, computes the specified summary statistics (e.g., `min(year)`) for every group within the data. The `arrange()` function just arranges the rows by the the variables specified (in this case, by `n` in `desc`ending order).

Let's add a couple of variables to understand why these titles appear in a wide range of years:

``` r
hot100_tbl %>%
  group_by(title) %>%
  summarise(n = n(), min_year = min(year), max_year = max(year), n_artists = n_distinct(artist), min_artist = min(artist), max_artist = max(artist)) %>%
  arrange(desc(n))
```

    ## # A tibble: 5,109 x 7
    ##             title     n min_year max_year n_artists                         min_artist              max_artist
    ##             <chr> <int>    <dbl>    <dbl>     <int>                              <chr>                   <chr>
    ##  1          Angel     6     1985     2003         6                          Aerosmith Shaggy featuring Rayvon
    ##  2 Because of You     5     1998     2007         3                         98 Degrees                   Ne-Yo
    ##  3        Forever     5     1960     2010         4                        Chris Brown      The Little Dippers
    ##  4         Heaven     5     1985     2004         5                        Bryan Adams                 Warrant
    ##  5        My Love     5     1966     2007         4   Justin Timberlake featuring T.I.            Petula Clark
    ##  6    Without You     5     1961     2012         4       David Guetta featuring Usher             Mötley Crüe
    ##  7         Always     4     1987     1995         3                     Atlantic Starr                 Erasure
    ##  8          Crazy     4     1991     2006         4                          Aerosmith                    Seal
    ##  9           Hero     4     1994     2002         3 Chad Kroeger featuring Josey Scott            Mariah Carey
    ## 10      I Like It     4     1989     2010         4                               Dino  The Blackout All-Stars
    ## # ... with 5,099 more rows

It's clear that most of the titles that appeared more than once are titles from different artists in different years, but with the same name. Exploring a bit more, you will find that just a small number of titles from the same artist got into the list more than once (e.g., "Because of You" from 98 Degrees appeared in the list in 1998 and 1999. The same title, "Because of You", but from **Kelly Clarkson** appeared in the list in 2005 and 2006).

So, If you would like to know which **songs** appeared in the Billboards Hot 100 more than once you'll have to work with both the title and artist. And this is the type of cases where `group_by()` comes in handy.

``` r
hot100_tbl %>%
  group_by(title, artist) %>%  # Every unique combination of title-artist will be considered a group
  summarise(n = n(), min_year = min(year), max_year = max(year)) %>%
  filter(n > 1) %>%
  arrange(desc(n))
```

    ## # A tibble: 223 x 5
    ## # Groups:   title [222]
    ##                      title                        artist     n min_year max_year
    ##                      <chr>                         <chr> <int>    <dbl>    <dbl>
    ##  1          100% Pure Love                Crystal Waters     2     1994     1995
    ##  2                       3                Britney Spears     2     2009     2010
    ##  3 4 Seasons of Loneliness                   Boyz II Men     2     1997     1998
    ##  4                     679 Fetty Wap featuring Remy Boyz     2     2015     2016
    ##  5                   Adorn                        Miguel     2     2012     2013
    ##  6                   Again                 Janet Jackson     2     1993     1994
    ##  7     All About That Bass                Meghan Trainor     2     2014     2015
    ##  8           All Cried Out          Allure featuring 112     2     1997     1998
    ##  9             All for You                  Sister Hazel     2     1997     1998
    ## 10          All I Wanna Do                   Sheryl Crow     2     1994     1995
    ## # ... with 213 more rows
…
Let's move on to the more interesting related dataset, `spotify_track_data`, which contains the features of most of the tracks in hot100\_tbl (see [The Data](#the-data)).

##### 4. Did the songs use to last longer than now? What about the loudness?

``` r
year_duration_loud <- spotify_track_data %>%
  group_by(year) %>%
  summarise(duration_avg = mean(duration_ms),  # In milliseconds
            loudness_avg = mean(loudness))  # In dB. The closer to 0, the louder

year_duration_loud
```

    ## # A tibble: 56 x 3
    ##     year duration_avg loudness_avg
    ##    <int>        <dbl>        <dbl>
    ##  1  1960     155654.1   -11.127660
    ##  2  1961     156342.8   -10.835400
    ##  3  1962     160043.7   -10.561870
    ##  4  1963     155572.9   -10.334300
    ##  5  1964     155645.1    -9.612210
    ##  6  1965     160676.3    -9.191265
    ##  7  1966     166129.5    -9.849979
    ##  8  1967     172115.5    -9.941828
    ##  9  1968     192539.9   -10.888580
    ## 10  1969     194415.0   -10.601936
    ## # ... with 46 more rows
…
##### 5. Get z-scores for the `duration` variable, for every year.

Sometimes it can be useful to get z-scores for each group in our data frame. With `group_by()`, it is very easy to get z-scores by group. I will do it in 2 steps so It is easier to understand:

**1st. step:** get distances from the mean for the `duration_ms` variable for each group (year).

``` r
spotify_track_data %>%
  group_by(year) %>%
  mutate(duration_dist_mean = duration_ms - mean(duration_ms)) %>%
  select(year, artist_name, track_name, duration_ms, duration_dist_mean)  # line added only to make visible the last operation (mutation)
```

    ## # A tibble: 5,497 x 5
    ## # Groups:   year [56]
    ##     year                 artist_name                                           track_name duration_ms duration_dist_mean
    ##    <int>                       <chr>                                                <chr>       <int>              <dbl>
    ##  1  1960 Percy Faith & His Orchestra "The Theme From \"A Summer Place\" - Single Version"      144893           -10761.1
    ##  2  1960                  Jim Reeves                                     He'll Have to Go      138640           -17014.1
    ##  3  1960              Johnny Preston                                         Running Bear      160027             4372.9
    ##  4  1960                Mark Dinning                                           Teen Angel      157080             1425.9
    ##  5  1960                  Brenda Lee                           I'm Sorry - Single Version      160067             4412.9
    ##  6  1960               Elvis Presley               It's Now Or Never - 2003 Sony Remaster      195733            40078.9
    ##  7  1960                 Jimmy Jones                                            Handy Man      120973           -34681.1
    ##  8  1960               Elvis Presley                                         Stuck on You      139293           -16361.1
    ##  9  1960              Chubby Checker                             The Twist - Re-Recording      158560             2905.9
    ## 10  1960              Connie Francis                          Everybody's Somebody's Fool      160093             4438.9
    ## # ... with 5,487 more rows
…
Here we used another `dplyr` verb (function), `mutate()`.This function allows us to add new variables to our data.frame, often as a function of existing variables. When used in conjunction with a "grouped" data.frame, it makes every computation per group (in this case, for every year).

The `select()` function (also from `dplyr`) lets us select variables (columns) in our data.frame in a very easy way (as you can see in the code).

**2nd. step:** get the z-scores for the `duration_ms` variable for each group.

``` r
spotify_track_data %>%
  group_by(year) %>%
  mutate(duration_dist_mean = duration_ms - mean(duration_ms),  # the same we did in the 1st. step
         duration_z_score = duration_dist_mean / sd(duration_ms)) %>%  # we use the just computed variable, and divide it by the standard deviation
  select(year, artist_name, track_name, duration_ms, duration_dist_mean, duration_z_score)
```

    ## # A tibble: 5,497 x 6
    ## # Groups:   year [56]
    ##     year                 artist_name                                           track_name duration_ms duration_dist_mean duration_z_score
    ##    <int>                       <chr>                                                <chr>       <int>              <dbl>            <dbl>
    ##  1  1960 Percy Faith & His Orchestra "The Theme From \"A Summer Place\" - Single Version"      144893           -10761.1      -0.42008025
    ##  2  1960                  Jim Reeves                                     He'll Have to Go      138640           -17014.1      -0.66417814
    ##  3  1960              Johnny Preston                                         Running Bear      160027             4372.9       0.17070457
    ##  4  1960                Mark Dinning                                           Teen Angel      157080             1425.9       0.05566275
    ##  5  1960                  Brenda Lee                           I'm Sorry - Single Version      160067             4412.9       0.17226604
    ##  6  1960               Elvis Presley               It's Now Or Never - 2003 Sony Remaster      195733            40078.9       1.56455699
    ##  7  1960                 Jimmy Jones                                            Handy Man      120973           -34681.1      -1.35384348
    ##  8  1960               Elvis Presley                                         Stuck on You      139293           -16361.1      -0.63868703
    ##  9  1960              Chubby Checker                             The Twist - Re-Recording      158560             2905.9       0.11343740
    ## 10  1960              Connie Francis                          Everybody's Somebody's Fool      160093             4438.9       0.17328100
    ## # ... with 5,487 more rows
…
